<?xml version="1.0" standalone="no"?>
<!DOCTYPE svg PUBLIC "-//W3C//DTD SVG 1.1//EN" "http://www.w3.org/Graphics/SVG/1.1/DTD/svg11.dtd">
<!--Generator: Xara Designer (www.xara.com), SVG filter version: 3.0.0.4-->
<svg stroke-width="0.501" stroke-linejoin="bevel" fill-rule="evenodd" xmlns:xlink="http://www.w3.org/1999/xlink" xmlns="http://www.w3.org/2000/svg" version="1.1" overflow="visible" width="197.008pt" height="95.811pt" viewBox="0 0 197.008 95.811">
 <defs>
  <marker id="DefaultArrow2" markerUnits="strokeWidth" viewBox="0 0 1 1" markerWidth="1" markerHeight="1" overflow="visible" orient="auto">
   <!-- REF_ARROW_STRAIGHT (-2) -->
   <g transform="scale(0.0092592592)">
    <!-- 1/108 -->
    <path d="M -9 54 L -9 -54 L 117 0 z"/>
   </g>
  </marker>
  <marker id="DefaultArrow3" markerUnits="strokeWidth" viewBox="0 0 1 1" markerWidth="1" markerHeight="1" overflow="visible" orient="auto">
   <!-- REF_ARROW_ANGLED -->
   <g transform="scale(0.0092592592)">
    <path d="M -27 54 L -9 0 L -27 -54 L 135 0 z"/>
   </g>
  </marker>
  <marker id="DefaultArrow4" markerUnits="strokeWidth" viewBox="0 0 1 1" markerWidth="1" markerHeight="1" overflow="visible" orient="auto">
   <!-- REF_ARROW_ROUNDED -->
   <g transform="scale(0.0092592592)">
    <path d="M -9,0 L -9,-45 C -9,-51.708 2.808,-56.580 9,-54 L 117,-9 C 120.916,-7.369 126.000,-4.242 126,0 C 126,4.242 120.916,7.369 117,9 L 9,54 C 2.808,56.580 -9,51.708 -9,45 z"/>
   </g>
  </marker>
  <marker id="DefaultArrow5" markerUnits="strokeWidth" viewBox="0 0 1 1" markerWidth="1" markerHeight="1" overflow="visible" orient="auto">
   <!-- REF_ARROW_SPOT -->
   <g transform="scale(0.0092592592)">
    <path d="M -54, 0 C -54,29.807 -29.807,54 0,54 C 29.807,54 54,29.807 54,0 C 54,-29.807 29.807,-54 0,-54 C -29.807,-54 -54,-29.807 -54,0 z"/>
   </g>
  </marker>
  <marker id="DefaultArrow6" markerUnits="strokeWidth" viewBox="0 0 1 1" markerWidth="1" markerHeight="1" overflow="visible" orient="auto">
   <!-- REF_ARROW_DIAMOND -->
   <g transform="scale(0.0092592592)">
    <path d="M -63,0 L 0,63 L 63,0 L 0,-63 z"/>
   </g>
  </marker>
  <marker id="DefaultArrow7" markerUnits="strokeWidth" viewBox="0 0 1 1" markerWidth="1" markerHeight="1" overflow="visible" orient="auto">
   <!-- REF_ARROW_FEATHER -->
   <g transform="scale(0.0092592592)">
    <path d="M 18,-54 L 108,-54 L 63,0 L 108,54 L 18, 54 L -36,0 z"/>
   </g>
  </marker>
  <marker id="DefaultArrow8" markerUnits="strokeWidth" viewBox="0 0 1 1" markerWidth="1" markerHeight="1" overflow="visible" orient="auto">
   <!-- REF_ARROW_FEATHER2 -->
   <g transform="scale(0.0092592592)">
    <path d="M -36,0 L 18,-54 L 54,-54 L 18,-18 L 27,-18 L 63,-54 L 99,-54 L 63,-18 L 72,-18 L 108,-54 L 144,-54 L 90,0 L 144,54 L 108,54 L 72,18 L 63,18 L 99,54 L 63,54 L 27,18 L 18,18 L 54,54 L 18,54 z"/>
   </g>
  </marker>
  <marker id="DefaultArrow9" markerUnits="strokeWidth" viewBox="0 0 1 1" markerWidth="1" markerHeight="1" overflow="visible" orient="auto">
   <!-- REF_ARROW_HOLLOWDIAMOND -->
   <g transform="scale(0.0092592592)">
    <path d="M 0,45 L -45,0 L 0, -45 L 45, 0 z M 0, 63 L-63, 0 L 0, -63 L 63, 0 z"/>
   </g>
  </marker>
  <filter id="StainedFilter">
   <feBlend mode="multiply" in2="BackgroundImage" in="SourceGraphic" result="blend"/>
   <feComposite in="blend" in2="SourceAlpha" operator="in" result="comp"/>
  </filter>
  <filter id="BleachFilter">
   <feBlend mode="screen" in2="BackgroundImage" in="SourceGraphic" result="blend"/>
   <feComposite in="blend" in2="SourceAlpha" operator="in" result="comp"/>
  </filter>
  <filter id="InvertTransparencyBitmapFilter">
   <feComponentTransfer>
    <feFuncR type="gamma" amplitude="1.055" exponent=".416666666" offset="-0.055"/>
    <feFuncG type="gamma" amplitude="1.055" exponent=".416666666" offset="-0.055"/>
    <feFuncB type="gamma" amplitude="1.055" exponent=".416666666" offset="-0.055"/>
   </feComponentTransfer>
   <feComponentTransfer>
    <feFuncR type="linear" slope="-1" intercept="1"/>
    <feFuncG type="linear" slope="-1" intercept="1"/>
    <feFuncB type="linear" slope="-1" intercept="1"/>
    <feFuncA type="linear" slope="1" intercept="0"/>
   </feComponentTransfer>
   <feComponentTransfer>
    <feFuncR type="gamma" amplitude="1" exponent="2.4" offset="0"/>
    <feFuncG type="gamma" amplitude="1" exponent="2.4" offset="0"/>
    <feFuncB type="gamma" amplitude="1" exponent="2.4" offset="0"/>
   </feComponentTransfer>
  </filter>
 </defs>
 <g id="Document" fill="none" stroke="black" font-family="Times New Roman" font-size="16" transform="scale(1 -1)">
  <g id="Spread" transform="translate(0 -95.811)">
   <g id="Layer 1">
    <g id="Group" font-size="9.462" font-family="Segoe UI">
     <path d="M 0.3,92.233 L 0.3,3.668 C 0.3,1.809 1.809,0.3 3.668,0.3 L 193.403,0.3 C 195.262,0.3 196.772,1.809 196.772,3.668 L 196.772,92.233 C 196.772,94.092 195.262,95.602 193.403,95.602 L 3.668,95.602 C 1.809,95.602 0.3,94.092 0.3,92.233 Z" stroke="#01a8e3" stroke-width="0.6" stroke-linejoin="miter" marker-start="none" marker-end="none" stroke-miterlimit="79.8403193612775"/>
     <g id="Group_1" stroke="none">
      <path d="M 35.689,54.981 L 35.689,26.67 C 35.689,23.7 37.764,21.288 40.318,21.288 L 40.319,21.288 C 42.873,21.288 44.948,23.7 44.948,26.67 L 44.948,54.981 C 44.948,57.952 42.873,60.364 40.319,60.364 L 40.318,60.364 C 37.764,60.364 35.689,57.952 35.689,54.981 Z" fill="#017d00" stroke-linejoin="miter" marker-start="none" marker-end="none"/>
      <path d="M 50.265,70.297 L 50.265,26.67 C 50.265,23.7 52.34,21.288 54.894,21.288 L 54.895,21.288 C 57.449,21.288 59.524,23.7 59.524,26.67 L 59.524,70.297 C 59.524,73.267 57.449,75.679 54.895,75.679 L 54.894,75.679 C 52.34,75.679 50.265,73.267 50.265,70.297 Z" fill="#017d00" stroke-linejoin="miter" marker-start="none" marker-end="none"/>
      <path d="M 64.495,37.963 L 64.495,26.671 C 64.495,23.7 66.57,21.288 69.124,21.288 L 69.125,21.288 C 71.679,21.288 73.754,23.7 73.754,26.671 L 73.754,37.963 C 73.754,40.933 71.679,43.345 69.125,43.345 L 69.124,43.345 C 66.57,43.345 64.495,40.933 64.495,37.963 Z" fill="#017d00" stroke-linejoin="miter" marker-start="none" marker-end="none"/>
      <path d="M 78.724,53.966 L 78.724,26.67 C 78.724,23.699 80.798,21.287 83.354,21.287 L 83.354,21.287 C 85.909,21.287 87.983,23.699 87.983,26.67 L 87.983,53.966 C 87.983,56.937 85.909,59.348 83.354,59.348 L 83.354,59.348 C 80.798,59.348 78.724,56.937 78.724,53.966 Z" fill="#017d00" stroke-linejoin="miter" marker-start="none" marker-end="none"/>
      <path d="M 92.955,77.671 L 92.955,26.67 C 92.955,23.7 95.03,21.288 97.584,21.288 L 97.585,21.288 C 100.139,21.288 102.214,23.7 102.214,26.67 L 102.214,77.671 C 102.214,80.642 100.139,83.054 97.585,83.054 L 97.584,83.054 C 95.03,83.054 92.955,80.642 92.955,77.671 Z" fill="#df1d27" stroke-linejoin="miter" marker-start="none" marker-end="none"/>
      <path d="M 107.185,75.97 L 107.185,26.67 C 107.185,23.699 109.26,21.287 111.814,21.287 L 111.815,21.287 C 114.369,21.287 116.444,23.699 116.444,26.67 L 116.444,75.97 C 116.444,78.94 114.369,81.352 111.815,81.352 L 111.814,81.352 C 109.26,81.352 107.185,78.94 107.185,75.97 Z" fill="#017d00" stroke-linejoin="miter" marker-start="none" marker-end="none"/>
      <path d="M 121.415,65.19 L 121.415,26.671 C 121.415,23.701 123.49,21.289 126.044,21.289 L 126.045,21.289 C 128.599,21.289 130.674,23.701 130.674,26.671 L 130.674,65.19 C 130.674,68.161 128.599,70.573 126.045,70.573 L 126.044,70.573 C 123.49,70.573 121.415,68.161 121.415,65.19 Z" fill="#df1d27" stroke-linejoin="miter" marker-start="none" marker-end="none"/>
      <path d="M 135.645,62.923 L 135.645,26.671 C 135.645,23.7 137.72,21.288 140.274,21.288 L 140.275,21.288 C 142.829,21.288 144.904,23.7 144.904,26.671 L 144.904,62.923 C 144.904,65.893 142.829,68.305 140.275,68.305 L 140.274,68.305 C 137.72,68.305 135.645,65.893 135.645,62.923 Z" fill="#017d00" stroke-linejoin="miter" marker-start="none" marker-end="none"/>
      <path d="M 149.875,46.471 L 149.875,26.67 C 149.875,23.7 151.95,21.288 154.504,21.288 L 154.505,21.288 C 157.059,21.288 159.134,23.7 159.134,26.67 L 159.134,46.471 C 159.134,49.441 157.059,51.853 154.505,51.853 L 154.504,51.853 C 151.95,51.853 149.875,49.441 149.875,46.471 Z" fill="#017d00" stroke-linejoin="miter" marker-start="none" marker-end="none"/>
      <text xml:space="preserve" transform="translate(35.19 9.314) scale(1 -1)" stroke-linecap="round" stroke-linejoin="round" fill="#01a8e3" stroke-width="0.355" stroke-miterlimit="79.8403193612775"><tspan x="0" y="0">20</tspan></text>
      <text xml:space="preserve" transform="translate(49.508 9.314) scale(1 -1)" stroke-linecap="round" stroke-linejoin="round" fill="#01a8e3" stroke-width="0.355" stroke-miterlimit="79.8403193612775"><tspan x="0" y="0">30</tspan></text>
      <text xml:space="preserve" transform="translate(64.115 9.314) scale(1 -1)" stroke-linecap="round" stroke-linejoin="round" fill="#01a8e3" stroke-width="0.355" stroke-miterlimit="79.8403193612775"><tspan x="0" y="0">10</tspan></text>
      <text xml:space="preserve" transform="translate(78.722 9.314) scale(1 -1)" stroke-linecap="round" stroke-linejoin="round" fill="#01a8e3" stroke-width="0.355" stroke-miterlimit="79.8403193612775"><tspan x="0" y="0">20</tspan></text>
      <text xml:space="preserve" transform="translate(93.33 9.314) scale(1 -1)" stroke-linecap="round" stroke-linejoin="round" fill="#01a8e3" stroke-width="0.355" stroke-miterlimit="79.8403193612775"><tspan x="0" y="0">40</tspan></text>
      <text xml:space="preserve" transform="translate(107.937 9.314) scale(1 -1)" stroke-linecap="round" stroke-linejoin="round" fill="#01a8e3" stroke-width="0.355" stroke-miterlimit="79.8403193612775"><tspan x="0" y="0">40</tspan></text>
      <text xml:space="preserve" transform="translate(122.544 9.314) scale(1 -1)" stroke-linecap="round" stroke-linejoin="round" fill="#01a8e3" stroke-width="0.355" stroke-miterlimit="79.8403193612775"><tspan x="0" y="0">30</tspan></text>
      <text xml:space="preserve" transform="translate(137.151 9.314) scale(1 -1)" stroke-linecap="round" stroke-linejoin="round" fill="#01a8e3" stroke-width="0.355" stroke-miterlimit="79.8403193612775"><tspan x="0" y="0">30</tspan></text>
      <text xml:space="preserve" transform="translate(151.759 9.314) scale(1 -1)" stroke-linecap="round" stroke-linejoin="round" fill="#01a8e3" stroke-width="0.355" stroke-miterlimit="79.8403193612775"><tspan x="0" y="0">20</tspan></text>
     </g>
    </g>
   </g>
  </g>
 </g>
</svg>
